BAN430 Forecasting – data_appendix
…
These are avaiable when the fpp3 package is loaded, i.e.

library(fpp3)
bank_calls

# A tsibble: 27,716 x 2 [5m] <UTC>
   DateTime            Calls
   <dttm>              <dbl>
 1 2003-03-03 07:00:00   111
 2 2003-03-03 07:05:00   113
 3 2003-03-03 07:10:00    76
 4 2003-03-03 07:15:00    82
 5 2003-03-03 07:20:00    91
 6 2003-03-03 07:25:00    87
 7 2003-03-03 07:30:00    75
 8 2003-03-03 07:35:00    89
 9 2003-03-03 07:40:00    99
10 2003-03-03 07:45:00   125
# … with 27,706 more rows
…
For excel files it is a bit less convenient, because you will need to download the file. But you can let R do that for you (if you insist).

loadExcel_url <- function(url) {
    temp_file <- tempfile(fileext = ".xlsx")
    download.file(url = url, destfile = temp_file, mode = "wb", quiet = TRUE)
    readxl::read_excel(temp_file)
}
loadExcel_url("https://github.com/holleland/BAN430/blob/master/data/NorwayEmployment_15-74years_bySex.xlsx?raw=true")

# A tibble: 214 × 3
   Sex   Quarter `Employed persons (1 000 persons)`
   <chr> <chr>                                <dbl>
 1 Male  1996K1                                1133
 2 Male  1996K2                                1152
 3 Male  1996K3                                1171
 4 Male  1996K4                                1161
 5 Male  1997K1                                1164
 6 Male  1997K2                                1189
 7 Male  1997K3                                1200
 8 Male  1997K4                                1189
 9 Male  1998K1                                1195
10 Male  1998K2                                1214
# … with 204 more rows
…
