BAN430 Forecasting – randrstudio
…
The sheet argument specifies which sheet in the excel file we want to read. The read_excel function is also quite smart so it recognizes that the date column is a date and automatically format it accordingly. It is however perhaps not so useful to also include the time of the day (all is 00:00:00), so let us remove this part.

dat %>% 
  mutate(date = as.Date(date))

# A tibble: 8,804 × 2
   date       price
   <date>     <dbl>
 1 2022-08-30  96.9
 2 2022-08-29  96.9
 3 2022-08-26  97.6
 4 2022-08-25  97.6
 5 2022-08-24  96.9
 6 2022-08-23  97.4
 7 2022-08-22  97.7
 8 2022-08-19  98.1
 9 2022-08-18  98.8
10 2022-08-17  98.7
# … with 8,794 more rows

Here I have used the mutate function. This is a function we use to either mutate an existing column or create a new one. In this case we mutated the date column transforming it to a “Date” object. We could also be intersted in adding a column for which year the observation is from.

dat %>% 
  mutate(date = as.Date(date),
         year = year(date))

# A tibble: 8,804 × 3
   date       price  year
   <date>     <dbl> <dbl>
 1 2022-08-30  96.9  2022
 2 2022-08-29  96.9  2022
 3 2022-08-26  97.6  2022
 4 2022-08-25  97.6  2022
 5 2022-08-24  96.9  2022
 6 2022-08-23  97.4  2022
 7 2022-08-22  97.7  2022
 8 2022-08-19  98.1  2022
 9 2022-08-18  98.8  2022
10 2022-08-17  98.7  2022
# … with 8,794 more rows
…
filter and select

Now, the data ranges from/to

range(dat$date)

[1] "1987-08-03" "2022-08-30"

but say you only want to use data from 2010 onwards. To do this, we use the filter function. This function is useful for selecting rows that fulfil some condition, in this case year >= 2010. Let us make a pipeline for this

dat %>% 
  filter(year >= 2010)

# A tibble: 3,178 × 3
   date       price  year
   <date>     <dbl> <dbl>
 1 2022-08-30  96.9  2022
 2 2022-08-29  96.9  2022
 3 2022-08-26  97.6  2022
 4 2022-08-25  97.6  2022
 5 2022-08-24  96.9  2022
 6 2022-08-23  97.4  2022
 7 2022-08-22  97.7  2022
 8 2022-08-19  98.1  2022
 9 2022-08-18  98.8  2022
10 2022-08-17  98.7  2022
# … with 3,168 more rows

Since 2022 is not a complete year (in the data), you also don’t want observations after 2021. Then you can add this as an extra condition.

dat %>% 
  filter(year >= 2010, year <=2021)

# A tibble: 3,012 × 3
   date       price  year
   <date>     <dbl> <dbl>
 1 2021-12-31  98.8  2021
 2 2021-12-30  98.8  2021
 3 2021-12-29  98.4  2021
 4 2021-12-28  99.0  2021
 5 2021-12-27  99.1  2021
 6 2021-12-23  98.9  2021
 7 2021-12-22  99.3  2021
 8 2021-12-21  99.2  2021
 9 2021-12-20  99.5  2021
10 2021-12-17  99.7  2021
# … with 3,002 more rows
…
which will produce the same result. Another useful function is called select. While filter is used on the rows of your data, select is for columns. Say we don’t need the year column after having filtered out the years we don’t want. We can then either select the columns we want to keep

dat %>% 
  filter(between(year, 2010, 2021)) %>%
  select(date, price)

or remove the columns we do not want

dat %>% 
  filter(between(year, 2010, 2021)) %>%
  select(-year)

# A tibble: 3,012 × 2
   date       price
   <date>     <dbl>
 1 2021-12-31  98.8
 2 2021-12-30  98.8
 3 2021-12-29  98.4
 4 2021-12-28  99.0
 5 2021-12-27  99.1
 6 2021-12-23  98.9
 7 2021-12-22  99.3
 8 2021-12-21  99.2
 9 2021-12-20  99.5
10 2021-12-17  99.7
# … with 3,002 more rows

group_by and summarize

Say we are interested in calculating the yearly mean price. In the tidyverse pipeline this means we want to group our observations according to year and summarize by year the mean of the observations. We will filter to avoid having the first and last years that are incomplete.

dat %>% 
  filter(between(year, 1988, 2021)) %>%
  group_by(year) %>%
  summarize(meanPrice = mean(price))

# A tibble: 34 × 2
    year meanPrice
   <dbl>     <dbl>
 1  1988      99.7
 2  1989     101. 
 3  1990     100. 
 4  1991     100. 
 5  1992     100. 
 6  1993     102. 
 7  1994      98.3
 8  1995     102. 
 9  1996      99.8
10  1997      99.9
# … with 24 more rows
…
