BAN430 Forecasting – w0_tsibble
…
WS0: tsibble, graphics and decomposition

Introduction

The point of this workshop is to get you familiarized with the fpp3 package and especially the tsibble object. This is the most important R structure of this course and we will therefore spend some time getting to know it better. The tsibble is the time series equivalent of a tibble object in the tidyverse. It is a data frame which is indexed by a time variable. To create a tsibble, we need to specify which column in the data is the time variable (the index variable). Here is an example, creating a tibble object from data on the temperature in Bergen:

library(fpp3) 
library(tidyverse)
# read the data: 
temp <- read_csv2(
  "https://raw.githubusercontent.com/holleland/BAN430/master/data/bergen_temp.csv")
temp

# A tibble: 516 × 2
   date       temp 
   <chr>      <chr>
 1 01.10.2021 12.9 
 2 02.10.2021 11.7 
 3 03.10.2021 13.6 
 4 04.10.2021 11.7 
 5 05.10.2021 11   
 6 06.10.2021 10   
 7 07.10.2021 11.1 
 8 08.10.2021 14.2 
 9 09.10.2021 13.8 
10 10.10.2021 11.3 
# ℹ 506 more rows

# Convert date column from character to date and temp to numeric:
temp <- temp %>% 
  mutate(date = as.Date(date, format = "%d.%m.%Y"),
         temp = as.numeric(temp))
temp

# A tibble: 516 × 2
   date        temp
   <date>     <dbl>
 1 2021-10-01  12.9
 2 2021-10-02  11.7
 3 2021-10-03  13.6
 4 2021-10-04  11.7
 5 2021-10-05  11  
 6 2021-10-06  10  
 7 2021-10-07  11.1
 8 2021-10-08  14.2
 9 2021-10-09  13.8
10 2021-10-10  11.3
# ℹ 506 more rows

# Creating a tsibble
temp.ts <- temp %>% as_tsibble(index = date)
temp.ts

# A tsibble: 516 x 2 [1D]
   date        temp
   <date>     <dbl>
 1 2021-10-01  12.9
 2 2021-10-02  11.7
 3 2021-10-03  13.6
 4 2021-10-04  11.7
 5 2021-10-05  11  
 6 2021-10-06  10  
 7 2021-10-07  11.1
 8 2021-10-08  14.2
 9 2021-10-09  13.8
10 2021-10-10  11.3
# ℹ 506 more rows
…
This is a simple time series with only one variable (the daily mean temperature in Bergen). Often the data we study will consist of multiple time series. Then we need to provide information on which columns the identify the individual time series. This is called the key variable of the tsibble object. Let us consider an example with temperature in Bergen, Oslo, Trondheim and Stavanger.

citytemp <- read_csv2(
  "https://raw.githubusercontent.com/holleland/BAN430/master/data//citytemp.csv")
citytemp.ts <- citytemp %>% 
  mutate(date = as.Date(date, format = "%d.%m.%Y")) %>% 
  filter(!is.na(date)) %>%  # Remove NA-values
  # Create tsibble object
  as_tsibble(index = date, 
             key = c("name","station"))
citytemp.ts

# A tsibble: 34,930 x 4 [1D]
# Key:       name, station [4]
   name             station date       meanTemp
   <chr>            <chr>   <date>        <dbl>
 1 Bergen - Florida SN50540 2000-01-01      6.3
 2 Bergen - Florida SN50540 2000-01-02      6.3
 3 Bergen - Florida SN50540 2000-01-03      6.7
 4 Bergen - Florida SN50540 2000-01-04      4.6
 5 Bergen - Florida SN50540 2000-01-05      4.6
 6 Bergen - Florida SN50540 2000-01-06      6.5
 7 Bergen - Florida SN50540 2000-01-07      6.3
 8 Bergen - Florida SN50540 2000-01-08      6.4
 9 Bergen - Florida SN50540 2000-01-09      4.1
10 Bergen - Florida SN50540 2000-01-10      5.3
# ℹ 34,920 more rows
…
